<!-- {# pkglts, glabpkg -->
<svg xmlns="http://www.w3.org/2000/svg"
     xmlns:xlink="http://www.w3.org/1999/xlink" width="90" height="20">
    <linearGradient id="b" x2="0" y2="100%">
        <stop offset="0" stop-color="#bbb" stop-opacity=".1"/>
        <stop offset="1" stop-opacity=".1"/>
    </linearGradient>
    <clipPath id="a">
        <rect width="90" height="20" rx="3" fill="#fff"/>
    </clipPath>
    <g clip-path="url(#a)">
        <path fill="#555" d="M0 0h46v20H0z"/>
        <path fill="#4c1" d="M46 0h44v20H46z"/>
        <path fill="url(#b)" d="M0 0h90v20H0z"/>
    </g>
    <g fill="#fff" text-anchor="middle"
       font-family="DejaVu Sans,Verdana,Geneva,sans-serif" font-size="11">
        <text x="23" y="15" fill="#010101" fill-opacity=".3">conda</text>
        <text x="23" y="14">conda</text>
        <text x="67" y="15" fill="#010101" fill-opacity=".3">0.0.1</text>
        <text x="67" y="14">0.0.1</text>
    </g>
</svg>
<!-- #} -->
